<svg width="21" height="24" viewBox="0 0 21 24" fill="none" xmlns="http://www.w3.org/2000/svg">
<g clip-path="url(#clip0_23_82)">
<path d="M9.04297 3.61032V22.5101C9.04309 22.8835 8.8923 23.2422 8.62277 23.5096C8.35324 23.777 7.9863 23.9319 7.60026 23.9414C5.29194 23.986 3.29524 23.9972 2.11799 24C1.73626 24.0003 1.36684 23.8695 1.07563 23.6308C0.784426 23.3922 0.590385 23.0612 0.528132 22.697C-0.239386 18.2609 -0.0662613 4.05673 0.487738 3.20019C0.738768 2.81516 3.76268 2.44688 7.46465 2.18461C7.66665 2.17164 7.86924 2.19886 8.05992 2.26461C8.2506 2.33035 8.4253 2.43322 8.57323 2.56685C8.72116 2.70048 8.83917 2.86202 8.91996 3.0415C9.00076 3.22098 9.04262 3.41458 9.04297 3.61032Z" fill="#A1DEBB"/>
<path d="M4.37443 -0.00279617H14.0146C14.4099 -0.00279617 14.7359 0.460355 14.7417 1.0379C14.7677 2.68403 14.7706 4.12369 14.7734 4.96908C14.7734 5.52709 14.4849 6.01535 14.1069 6.10742C11.8447 6.66543 4.59949 6.5343 4.1638 6.13532C3.96759 5.95675 3.78004 3.79168 3.64442 1.13834C3.61557 0.521741 3.95028 -0.00279617 4.37443 -0.00279617Z" fill="#FFED4A"/>
</g>
<defs>
<clipPath id="clip0_23_82">
<rect width="21" height="24" fill="white" transform="translate(21 24) rotate(-180)"/>
</clipPath>
</defs>
</svg>
