<svg width="80" height="73" viewBox="0 0 80 73" fill="none" xmlns="http://www.w3.org/2000/svg">
<g clip-path="url(#clip0_902_2925)">
<path d="M75.1666 16.3258C79.733 25.6699 80.402 36.4448 77.0266 46.282C73.6513 56.1192 66.5079 64.2136 57.1666 68.7857C37.7066 78.3057 12.4966 70.2357 2.98664 50.7857C-6.52336 31.3357 8.03665 15.6457 27.4966 6.12574C46.9566 -3.39426 65.6467 -3.12425 75.1666 16.3258Z" fill="#FCE9E9"/>
<path d="M42.7539 53.37H56.7606" stroke="#EA565A" stroke-width="2" stroke-linecap="round" stroke-linejoin="round"/>
<path fill-rule="evenodd" clip-rule="evenodd" d="M40.8998 20.5498C42.5185 18.4874 45.1345 18.595 47.1992 20.2138L50.2522 22.6079C52.3169 24.2267 53.0483 26.7372 51.4295 28.8041L33.2232 52.0315C32.6148 52.809 31.6857 53.2681 30.6973 53.279L23.6753 53.3691L22.085 46.5272C21.861 45.5673 22.085 44.557 22.6935 43.7772L40.8998 20.5498Z" stroke="#EA565A" stroke-width="2" stroke-linecap="round" stroke-linejoin="round"/>
<path d="M37.4902 24.8994L48.02 33.1536" stroke="#EA565A" stroke-width="2" stroke-linecap="round" stroke-linejoin="round"/>
</g>
<defs>
<clipPath id="clip0_902_2925">
<rect width="79.17" height="72.79" fill="white"/>
</clipPath>
</defs>
</svg>
